{
    "_embedded": {
        "entries": [
            {
                "id": 1,
                "time": 1.0,
                "date": 1511740800000,
                "taskId": 1,
                "_links": {
                    "self": {
                        "href": "http://localhost:4200/rest/spring/entries/1"
                    },
                    "entry": {
                        "href": "http://localhost:4200/rest/spring/entries/1{?projection}",
                        "templated": true
                    },
                    "user": {
                        "href": "http://localhost:4200/rest/spring/entries/1/user"
                    },
                    "task": {
                        "href": "http://localhost:4200/rest/spring/entries/1/task"
                    }
                }
            },
            {
                "id": 2,
                "time": 1.0,
                "date": 1511740800000,
                "taskId": 2,
                "_links": {
                    "self": {
                        "href": "http://localhost:4200/rest/spring/entries/2"
                    },
                    "entry": {
                        "href": "http://localhost:4200/rest/spring/entries/2{?projection}",
                        "templated": true
                    },
                    "user": {
                        "href": "http://localhost:4200/rest/spring/entries/2/user"
                    },
                    "task": {
                        "href": "http://localhost:4200/rest/spring/entries/2/task"
                    }
                }
            },
            {
                "id": 3,
                "time": 1.0,
                "date": 1511740800000,
                "taskId": 3,
                "_links": {
                    "self": {
                        "href": "http://localhost:4200/rest/spring/entries/3"
                    },
                    "entry": {
                        "href": "http://localhost:4200/rest/spring/entries/3{?projection}",
                        "templated": true
                    },
                    "user": {
                        "href": "http://localhost:4200/rest/spring/entries/3/user"
                    },
                    "task": {
                        "href": "http://localhost:4200/rest/spring/entries/3/task"
                    }
                }
            },
            {
                "id": 4,
                "time": 1.0,
                "date": 1511740800000,
                "taskId": 4,
                "_links": {
                    "self": {
                        "href": "http://localhost:4200/rest/spring/entries/4"
                    },
                    "entry": {
                        "href": "http://localhost:4200/rest/spring/entries/4{?projection}",
                        "templated": true
                    },
                    "user": {
                        "href": "http://localhost:4200/rest/spring/entries/4/user"
                    },
                    "task": {
                        "href": "http://localhost:4200/rest/spring/entries/4/task"
                    }
                }
            },
            {
                "id": 5,
                "time": 1.0,
                "date": 1511740800000,
                "taskId": 5,
                "_links": {
                    "self": {
                        "href": "http://localhost:4200/rest/spring/entries/5"
                    },
                    "entry": {
                        "href": "http://localhost:4200/rest/spring/entries/5{?projection}",
                        "templated": true
                    },
                    "user": {
                        "href": "http://localhost:4200/rest/spring/entries/5/user"
                    },
                    "task": {
                        "href": "http://localhost:4200/rest/spring/entries/5/task"
                    }
                }
            },
            {
                "id": 6,
                "time": 1.0,
                "date": 1511740800000,
                "taskId": 6,
                "_links": {
                    "self": {
                        "href": "http://localhost:4200/rest/spring/entries/6"
                    },
                    "entry": {
                        "href": "http://localhost:4200/rest/spring/entries/6{?projection}",
                        "templated": true
                    },
                    "user": {
                        "href": "http://localhost:4200/rest/spring/entries/6/user"
                    },
                    "task": {
                        "href": "http://localhost:4200/rest/spring/entries/6/task"
                    }
                }
            },
            {
                "id": 7,
                "time": 1.0,
                "date": 1511740800000,
                "taskId": 7,
                "_links": {
                    "self": {
                        "href": "http://localhost:4200/rest/spring/entries/7"
                    },
                    "entry": {
                        "href": "http://localhost:4200/rest/spring/entries/7{?projection}",
                        "templated": true
                    },
                    "user": {
                        "href": "http://localhost:4200/rest/spring/entries/7/user"
                    },
                    "task": {
                        "href": "http://localhost:4200/rest/spring/entries/7/task"
                    }
                }
            },
            {
                "id": 8,
                "time": 1.0,
                "date": 1511740800000,
                "taskId": 8,
                "_links": {
                    "self": {
                        "href": "http://localhost:4200/rest/spring/entries/8"
                    },
                    "entry": {
                        "href": "http://localhost:4200/rest/spring/entries/8{?projection}",
                        "templated": true
                    },
                    "user": {
                        "href": "http://localhost:4200/rest/spring/entries/8/user"
                    },
                    "task": {
                        "href": "http://localhost:4200/rest/spring/entries/8/task"
                    }
                }
            },
            {
                "id": 9,
                "time": 1.0,
                "date": 1511740800000,
                "taskId": 9,
                "_links": {
                    "self": {
                        "href": "http://localhost:4200/rest/spring/entries/9"
                    },
                    "entry": {
                        "href": "http://localhost:4200/rest/spring/entries/9{?projection}",
                        "templated": true
                    },
                    "user": {
                        "href": "http://localhost:4200/rest/spring/entries/9/user"
                    },
                    "task": {
                        "href": "http://localhost:4200/rest/spring/entries/9/task"
                    }
                }
            },
            {
                "id": 10,
                "time": 1.0,
                "date": 1511740800000,
                "taskId": 10,
                "_links": {
                    "self": {
                        "href": "http://localhost:4200/rest/spring/entries/10"
                    },
                    "entry": {
                        "href": "http://localhost:4200/rest/spring/entries/10{?projection}",
                        "templated": true
                    },
                    "user": {
                        "href": "http://localhost:4200/rest/spring/entries/10/user"
                    },
                    "task": {
                        "href": "http://localhost:4200/rest/spring/entries/10/task"
                    }
                }
            },
            {
                "id": 11,
                "time": 1.0,
                "date": 1511740800000,
                "taskId": 11,
                "_links": {
                    "self": {
                        "href": "http://localhost:4200/rest/spring/entries/11"
                    },
                    "entry": {
                        "href": "http://localhost:4200/rest/spring/entries/11{?projection}",
                        "templated": true
                    },
                    "user": {
                        "href": "http://localhost:4200/rest/spring/entries/11/user"
                    },
                    "task": {
                        "href": "http://localhost:4200/rest/spring/entries/11/task"
                    }
                }
            },
            {
                "id": 12,
                "time": 1.0,
                "date": 1511740800000,
                "taskId": 12,
                "_links": {
                    "self": {
                        "href": "http://localhost:4200/rest/spring/entries/12"
                    },
                    "entry": {
                        "href": "http://localhost:4200/rest/spring/entries/12{?projection}",
                        "templated": true
                    },
                    "user": {
                        "href": "http://localhost:4200/rest/spring/entries/12/user"
                    },
                    "task": {
                        "href": "http://localhost:4200/rest/spring/entries/12/task"
                    }
                }
            },
            {
                "id": 13,
                "time": 1.0,
                "date": 1511740800000,
                "taskId": 13,
                "_links": {
                    "self": {
                        "href": "http://localhost:4200/rest/spring/entries/13"
                    },
                    "entry": {
                        "href": "http://localhost:4200/rest/spring/entries/13{?projection}",
                        "templated": true
                    },
                    "user": {
                        "href": "http://localhost:4200/rest/spring/entries/13/user"
                    },
                    "task": {
                        "href": "http://localhost:4200/rest/spring/entries/13/task"
                    }
                }
            },
            {
                "id": 14,
                "time": 1.0,
                "date": 1511740800000,
                "taskId": 14,
                "_links": {
                    "self": {
                        "href": "http://localhost:4200/rest/spring/entries/14"
                    },
                    "entry": {
                        "href": "http://localhost:4200/rest/spring/entries/14{?projection}",
                        "templated": true
                    },
                    "user": {
                        "href": "http://localhost:4200/rest/spring/entries/14/user"
                    },
                    "task": {
                        "href": "http://localhost:4200/rest/spring/entries/14/task"
                    }
                }
            },
            {
                "id": 15,
                "time": 1.0,
                "date": 1511740800000,
                "taskId": 15,
                "_links": {
                    "self": {
                        "href": "http://localhost:4200/rest/spring/entries/15"
                    },
                    "entry": {
                        "href": "http://localhost:4200/rest/spring/entries/15{?projection}",
                        "templated": true
                    },
                    "user": {
                        "href": "http://localhost:4200/rest/spring/entries/15/user"
                    },
                    "task": {
                        "href": "http://localhost:4200/rest/spring/entries/15/task"
                    }
                }
            },
            {
                "id": 16,
                "time": 1.0,
                "date": 1511740800000,
                "taskId": 16,
                "_links": {
                    "self": {
                        "href": "http://localhost:4200/rest/spring/entries/16"
                    },
                    "entry": {
                        "href": "http://localhost:4200/rest/spring/entries/16{?projection}",
                        "templated": true
                    },
                    "user": {
                        "href": "http://localhost:4200/rest/spring/entries/16/user"
                    },
                    "task": {
                        "href": "http://localhost:4200/rest/spring/entries/16/task"
                    }
                }
            },
            {
                "id": 17,
                "time": 1.0,
                "date": 1511740800000,
                "taskId": 17,
                "_links": {
                    "self": {
                        "href": "http://localhost:4200/rest/spring/entries/17"
                    },
                    "entry": {
                        "href": "http://localhost:4200/rest/spring/entries/17{?projection}",
                        "templated": true
                    },
                    "user": {
                        "href": "http://localhost:4200/rest/spring/entries/17/user"
                    },
                    "task": {
                        "href": "http://localhost:4200/rest/spring/entries/17/task"
                    }
                }
            },
            {
                "id": 18,
                "time": 1.0,
                "date": 1511740800000,
                "taskId": 18,
                "_links": {
                    "self": {
                        "href": "http://localhost:4200/rest/spring/entries/18"
                    },
                    "entry": {
                        "href": "http://localhost:4200/rest/spring/entries/18{?projection}",
                        "templated": true
                    },
                    "user": {
                        "href": "http://localhost:4200/rest/spring/entries/18/user"
                    },
                    "task": {
                        "href": "http://localhost:4200/rest/spring/entries/18/task"
                    }
                }
            },
            {
                "id": 19,
                "time": 1.0,
                "date": 1511740800000,
                "taskId": 19,
                "_links": {
                    "self": {
                        "href": "http://localhost:4200/rest/spring/entries/19"
                    },
                    "entry": {
                        "href": "http://localhost:4200/rest/spring/entries/19{?projection}",
                        "templated": true
                    },
                    "user": {
                        "href": "http://localhost:4200/rest/spring/entries/19/user"
                    },
                    "task": {
                        "href": "http://localhost:4200/rest/spring/entries/19/task"
                    }
                }
            },
            {
                "id": 20,
                "time": 1.0,
                "date": 1511740800000,
                "taskId": 20,
                "_links": {
                    "self": {
                        "href": "http://localhost:4200/rest/spring/entries/20"
                    },
                    "entry": {
                        "href": "http://localhost:4200/rest/spring/entries/20{?projection}",
                        "templated": true
                    },
                    "user": {
                        "href": "http://localhost:4200/rest/spring/entries/20/user"
                    },
                    "task": {
                        "href": "http://localhost:4200/rest/spring/entries/20/task"
                    }
                }
            },
            {
                "id": 21,
                "time": 1.0,
                "date": 1511740800000,
                "taskId": 21,
                "_links": {
                    "self": {
                        "href": "http://localhost:4200/rest/spring/entries/21"
                    },
                    "entry": {
                        "href": "http://localhost:4200/rest/spring/entries/21{?projection}",
                        "templated": true
                    },
                    "user": {
                        "href": "http://localhost:4200/rest/spring/entries/21/user"
                    },
                    "task": {
                        "href": "http://localhost:4200/rest/spring/entries/21/task"
                    }
                }
            },
            {
                "id": 22,
                "time": 1.0,
                "date": 1511740800000,
                "taskId": 22,
                "_links": {
                    "self": {
                        "href": "http://localhost:4200/rest/spring/entries/22"
                    },
                    "entry": {
                        "href": "http://localhost:4200/rest/spring/entries/22{?projection}",
                        "templated": true
                    },
                    "user": {
                        "href": "http://localhost:4200/rest/spring/entries/22/user"
                    },
                    "task": {
                        "href": "http://localhost:4200/rest/spring/entries/22/task"
                    }
                }
            },
            {
                "id": 23,
                "time": 1.0,
                "date": 1511740800000,
                "taskId": 23,
                "_links": {
                    "self": {
                        "href": "http://localhost:4200/rest/spring/entries/23"
                    },
                    "entry": {
                        "href": "http://localhost:4200/rest/spring/entries/23{?projection}",
                        "templated": true
                    },
                    "user": {
                        "href": "http://localhost:4200/rest/spring/entries/23/user"
                    },
                    "task": {
                        "href": "http://localhost:4200/rest/spring/entries/23/task"
                    }
                }
            },
            {
                "id": 24,
                "time": 1.0,
                "date": 1511740800000,
                "taskId": 24,
                "_links": {
                    "self": {
                        "href": "http://localhost:4200/rest/spring/entries/24"
                    },
                    "entry": {
                        "href": "http://localhost:4200/rest/spring/entries/24{?projection}",
                        "templated": true
                    },
                    "user": {
                        "href": "http://localhost:4200/rest/spring/entries/24/user"
                    },
                    "task": {
                        "href": "http://localhost:4200/rest/spring/entries/24/task"
                    }
                }
            },
            {
                "id": 25,
                "time": 1.0,
                "date": 1511740800000,
                "taskId": 25,
                "_links": {
                    "self": {
                        "href": "http://localhost:4200/rest/spring/entries/25"
                    },
                    "entry": {
                        "href": "http://localhost:4200/rest/spring/entries/25{?projection}",
                        "templated": true
                    },
                    "user": {
                        "href": "http://localhost:4200/rest/spring/entries/25/user"
                    },
                    "task": {
                        "href": "http://localhost:4200/rest/spring/entries/25/task"
                    }
                }
            },
            {
                "id": 26,
                "time": 1.0,
                "date": 1511740800000,
                "taskId": 26,
                "_links": {
                    "self": {
                        "href": "http://localhost:4200/rest/spring/entries/26"
                    },
                    "entry": {
                        "href": "http://localhost:4200/rest/spring/entries/26{?projection}",
                        "templated": true
                    },
                    "user": {
                        "href": "http://localhost:4200/rest/spring/entries/26/user"
                    },
                    "task": {
                        "href": "http://localhost:4200/rest/spring/entries/26/task"
                    }
                }
            },
            {
                "id": 27,
                "time": 1.0,
                "date": 1511740800000,
                "taskId": 27,
                "_links": {
                    "self": {
                        "href": "http://localhost:4200/rest/spring/entries/27"
                    },
                    "entry": {
                        "href": "http://localhost:4200/rest/spring/entries/27{?projection}",
                        "templated": true
                    },
                    "user": {
                        "href": "http://localhost:4200/rest/spring/entries/27/user"
                    },
                    "task": {
                        "href": "http://localhost:4200/rest/spring/entries/27/task"
                    }
                }
            },
            {
                "id": 28,
                "time": 1.0,
                "date": 1511740800000,
                "taskId": 28,
                "_links": {
                    "self": {
                        "href": "http://localhost:4200/rest/spring/entries/28"
                    },
                    "entry": {
                        "href": "http://localhost:4200/rest/spring/entries/28{?projection}",
                        "templated": true
                    },
                    "user": {
                        "href": "http://localhost:4200/rest/spring/entries/28/user"
                    },
                    "task": {
                        "href": "http://localhost:4200/rest/spring/entries/28/task"
                    }
                }
            },
            {
                "id": 29,
                "time": 1.0,
                "date": 1511740800000,
                "taskId": 29,
                "_links": {
                    "self": {
                        "href": "http://localhost:4200/rest/spring/entries/29"
                    },
                    "entry": {
                        "href": "http://localhost:4200/rest/spring/entries/29{?projection}",
                        "templated": true
                    },
                    "user": {
                        "href": "http://localhost:4200/rest/spring/entries/29/user"
                    },
                    "task": {
                        "href": "http://localhost:4200/rest/spring/entries/29/task"
                    }
                }
            },
            {
                "id": 30,
                "time": 1.0,
                "date": 1511740800000,
                "taskId": 30,
                "_links": {
                    "self": {
                        "href": "http://localhost:4200/rest/spring/entries/30"
                    },
                    "entry": {
                        "href": "http://localhost:4200/rest/spring/entries/30{?projection}",
                        "templated": true
                    },
                    "user": {
                        "href": "http://localhost:4200/rest/spring/entries/30/user"
                    },
                    "task": {
                        "href": "http://localhost:4200/rest/spring/entries/30/task"
                    }
                }
            },
            {
                "id": 31,
                "time": 1.0,
                "date": 1511740800000,
                "taskId": 31,
                "_links": {
                    "self": {
                        "href": "http://localhost:4200/rest/spring/entries/31"
                    },
                    "entry": {
                        "href": "http://localhost:4200/rest/spring/entries/31{?projection}",
                        "templated": true
                    },
                    "user": {
                        "href": "http://localhost:4200/rest/spring/entries/31/user"
                    },
                    "task": {
                        "href": "http://localhost:4200/rest/spring/entries/31/task"
                    }
                }
            },
            {
                "id": 32,
                "time": 1.0,
                "date": 1511740800000,
                "taskId": 32,
                "_links": {
                    "self": {
                        "href": "http://localhost:4200/rest/spring/entries/32"
                    },
                    "entry": {
                        "href": "http://localhost:4200/rest/spring/entries/32{?projection}",
                        "templated": true
                    },
                    "user": {
                        "href": "http://localhost:4200/rest/spring/entries/32/user"
                    },
                    "task": {
                        "href": "http://localhost:4200/rest/spring/entries/32/task"
                    }
                }
            },
            {
                "id": 33,
                "time": 1.0,
                "date": 1511740800000,
                "taskId": 33,
                "_links": {
                    "self": {
                        "href": "http://localhost:4200/rest/spring/entries/33"
                    },
                    "entry": {
                        "href": "http://localhost:4200/rest/spring/entries/33{?projection}",
                        "templated": true
                    },
                    "user": {
                        "href": "http://localhost:4200/rest/spring/entries/33/user"
                    },
                    "task": {
                        "href": "http://localhost:4200/rest/spring/entries/33/task"
                    }
                }
            },
            {
                "id": 34,
                "time": 1.0,
                "date": 1511740800000,
                "taskId": 34,
                "_links": {
                    "self": {
                        "href": "http://localhost:4200/rest/spring/entries/34"
                    },
                    "entry": {
                        "href": "http://localhost:4200/rest/spring/entries/34{?projection}",
                        "templated": true
                    },
                    "user": {
                        "href": "http://localhost:4200/rest/spring/entries/34/user"
                    },
                    "task": {
                        "href": "http://localhost:4200/rest/spring/entries/34/task"
                    }
                }
            },
            {
                "id": 35,
                "time": 1.0,
                "date": 1511740800000,
                "taskId": 35,
                "_links": {
                    "self": {
                        "href": "http://localhost:4200/rest/spring/entries/35"
                    },
                    "entry": {
                        "href": "http://localhost:4200/rest/spring/entries/35{?projection}",
                        "templated": true
                    },
                    "user": {
                        "href": "http://localhost:4200/rest/spring/entries/35/user"
                    },
                    "task": {
                        "href": "http://localhost:4200/rest/spring/entries/35/task"
                    }
                }
            },
            {
                "id": 36,
                "time": 1.0,
                "date": 1511740800000,
                "taskId": 36,
                "_links": {
                    "self": {
                        "href": "http://localhost:4200/rest/spring/entries/36"
                    },
                    "entry": {
                        "href": "http://localhost:4200/rest/spring/entries/36{?projection}",
                        "templated": true
                    },
                    "user": {
                        "href": "http://localhost:4200/rest/spring/entries/36/user"
                    },
                    "task": {
                        "href": "http://localhost:4200/rest/spring/entries/36/task"
                    }
                }
            },
            {
                "id": 37,
                "time": 1.0,
                "date": 1511740800000,
                "taskId": 37,
                "_links": {
                    "self": {
                        "href": "http://localhost:4200/rest/spring/entries/37"
                    },
                    "entry": {
                        "href": "http://localhost:4200/rest/spring/entries/37{?projection}",
                        "templated": true
                    },
                    "user": {
                        "href": "http://localhost:4200/rest/spring/entries/37/user"
                    },
                    "task": {
                        "href": "http://localhost:4200/rest/spring/entries/37/task"
                    }
                }
            },
            {
                "id": 38,
                "time": 1.0,
                "date": 1511740800000,
                "taskId": 38,
                "_links": {
                    "self": {
                        "href": "http://localhost:4200/rest/spring/entries/38"
                    },
                    "entry": {
                        "href": "http://localhost:4200/rest/spring/entries/38{?projection}",
                        "templated": true
                    },
                    "user": {
                        "href": "http://localhost:4200/rest/spring/entries/38/user"
                    },
                    "task": {
                        "href": "http://localhost:4200/rest/spring/entries/38/task"
                    }
                }
            },
            {
                "id": 39,
                "time": 1.0,
                "date": 1511740800000,
                "taskId": 39,
                "_links": {
                    "self": {
                        "href": "http://localhost:4200/rest/spring/entries/39"
                    },
                    "entry": {
                        "href": "http://localhost:4200/rest/spring/entries/39{?projection}",
                        "templated": true
                    },
                    "user": {
                        "href": "http://localhost:4200/rest/spring/entries/39/user"
                    },
                    "task": {
                        "href": "http://localhost:4200/rest/spring/entries/39/task"
                    }
                }
            },
            {
                "id": 40,
                "time": 1.0,
                "date": 1511740800000,
                "taskId": 40,
                "_links": {
                    "self": {
                        "href": "http://localhost:4200/rest/spring/entries/40"
                    },
                    "entry": {
                        "href": "http://localhost:4200/rest/spring/entries/40{?projection}",
                        "templated": true
                    },
                    "user": {
                        "href": "http://localhost:4200/rest/spring/entries/40/user"
                    },
                    "task": {
                        "href": "http://localhost:4200/rest/spring/entries/40/task"
                    }
                }
            },
            {
                "id": 41,
                "time": 1.0,
                "date": 1511740800000,
                "taskId": 41,
                "_links": {
                    "self": {
                        "href": "http://localhost:4200/rest/spring/entries/41"
                    },
                    "entry": {
                        "href": "http://localhost:4200/rest/spring/entries/41{?projection}",
                        "templated": true
                    },
                    "user": {
                        "href": "http://localhost:4200/rest/spring/entries/41/user"
                    },
                    "task": {
                        "href": "http://localhost:4200/rest/spring/entries/41/task"
                    }
                }
            },
            {
                "id": 42,
                "time": 1.0,
                "date": 1511740800000,
                "taskId": 42,
                "_links": {
                    "self": {
                        "href": "http://localhost:4200/rest/spring/entries/42"
                    },
                    "entry": {
                        "href": "http://localhost:4200/rest/spring/entries/42{?projection}",
                        "templated": true
                    },
                    "user": {
                        "href": "http://localhost:4200/rest/spring/entries/42/user"
                    },
                    "task": {
                        "href": "http://localhost:4200/rest/spring/entries/42/task"
                    }
                }
            },
            {
                "id": 43,
                "time": 1.0,
                "date": 1511740800000,
                "taskId": 43,
                "_links": {
                    "self": {
                        "href": "http://localhost:4200/rest/spring/entries/43"
                    },
                    "entry": {
                        "href": "http://localhost:4200/rest/spring/entries/43{?projection}",
                        "templated": true
                    },
                    "user": {
                        "href": "http://localhost:4200/rest/spring/entries/43/user"
                    },
                    "task": {
                        "href": "http://localhost:4200/rest/spring/entries/43/task"
                    }
                }
            },
            {
                "id": 44,
                "time": 1.0,
                "date": 1511740800000,
                "taskId": 44,
                "_links": {
                    "self": {
                        "href": "http://localhost:4200/rest/spring/entries/44"
                    },
                    "entry": {
                        "href": "http://localhost:4200/rest/spring/entries/44{?projection}",
                        "templated": true
                    },
                    "user": {
                        "href": "http://localhost:4200/rest/spring/entries/44/user"
                    },
                    "task": {
                        "href": "http://localhost:4200/rest/spring/entries/44/task"
                    }
                }
            },
            {
                "id": 45,
                "time": 1.0,
                "date": 1511740800000,
                "taskId": 45,
                "_links": {
                    "self": {
                        "href": "http://localhost:4200/rest/spring/entries/45"
                    },
                    "entry": {
                        "href": "http://localhost:4200/rest/spring/entries/45{?projection}",
                        "templated": true
                    },
                    "user": {
                        "href": "http://localhost:4200/rest/spring/entries/45/user"
                    },
                    "task": {
                        "href": "http://localhost:4200/rest/spring/entries/45/task"
                    }
                }
            },
            {
                "id": 46,
                "time": 1.0,
                "date": 1511740800000,
                "taskId": 46,
                "_links": {
                    "self": {
                        "href": "http://localhost:4200/rest/spring/entries/46"
                    },
                    "entry": {
                        "href": "http://localhost:4200/rest/spring/entries/46{?projection}",
                        "templated": true
                    },
                    "user": {
                        "href": "http://localhost:4200/rest/spring/entries/46/user"
                    },
                    "task": {
                        "href": "http://localhost:4200/rest/spring/entries/46/task"
                    }
                }
            },
            {
                "id": 47,
                "time": 1.0,
                "date": 1511740800000,
                "taskId": 47,
                "_links": {
                    "self": {
                        "href": "http://localhost:4200/rest/spring/entries/47"
                    },
                    "entry": {
                        "href": "http://localhost:4200/rest/spring/entries/47{?projection}",
                        "templated": true
                    },
                    "user": {
                        "href": "http://localhost:4200/rest/spring/entries/47/user"
                    },
                    "task": {
                        "href": "http://localhost:4200/rest/spring/entries/47/task"
                    }
                }
            },
            {
                "id": 48,
                "time": 1.0,
                "date": 1511740800000,
                "taskId": 48,
                "_links": {
                    "self": {
                        "href": "http://localhost:4200/rest/spring/entries/48"
                    },
                    "entry": {
                        "href": "http://localhost:4200/rest/spring/entries/48{?projection}",
                        "templated": true
                    },
                    "user": {
                        "href": "http://localhost:4200/rest/spring/entries/48/user"
                    },
                    "task": {
                        "href": "http://localhost:4200/rest/spring/entries/48/task"
                    }
                }
            },
            {
                "id": 49,
                "time": 1.0,
                "date": 1511740800000,
                "taskId": 49,
                "_links": {
                    "self": {
                        "href": "http://localhost:4200/rest/spring/entries/49"
                    },
                    "entry": {
                        "href": "http://localhost:4200/rest/spring/entries/49{?projection}",
                        "templated": true
                    },
                    "user": {
                        "href": "http://localhost:4200/rest/spring/entries/49/user"
                    },
                    "task": {
                        "href": "http://localhost:4200/rest/spring/entries/49/task"
                    }
                }
            },
            {
                "id": 50,
                "time": 1.0,
                "date": 1511740800000,
                "taskId": 50,
                "_links": {
                    "self": {
                        "href": "http://localhost:4200/rest/spring/entries/50"
                    },
                    "entry": {
                        "href": "http://localhost:4200/rest/spring/entries/50{?projection}",
                        "templated": true
                    },
                    "user": {
                        "href": "http://localhost:4200/rest/spring/entries/50/user"
                    },
                    "task": {
                        "href": "http://localhost:4200/rest/spring/entries/50/task"
                    }
                }
            },
            {
                "id": 51,
                "time": 1.0,
                "date": 1511740800000,
                "taskId": 51,
                "_links": {
                    "self": {
                        "href": "http://localhost:4200/rest/spring/entries/51"
                    },
                    "entry": {
                        "href": "http://localhost:4200/rest/spring/entries/51{?projection}",
                        "templated": true
                    },
                    "user": {
                        "href": "http://localhost:4200/rest/spring/entries/51/user"
                    },
                    "task": {
                        "href": "http://localhost:4200/rest/spring/entries/51/task"
                    }
                }
            },
            {
                "id": 52,
                "time": 1.0,
                "date": 1511740800000,
                "taskId": 52,
                "_links": {
                    "self": {
                        "href": "http://localhost:4200/rest/spring/entries/52"
                    },
                    "entry": {
                        "href": "http://localhost:4200/rest/spring/entries/52{?projection}",
                        "templated": true
                    },
                    "user": {
                        "href": "http://localhost:4200/rest/spring/entries/52/user"
                    },
                    "task": {
                        "href": "http://localhost:4200/rest/spring/entries/52/task"
                    }
                }
            },
            {
                "id": 53,
                "time": 1.0,
                "date": 1511740800000,
                "taskId": 53,
                "_links": {
                    "self": {
                        "href": "http://localhost:4200/rest/spring/entries/53"
                    },
                    "entry": {
                        "href": "http://localhost:4200/rest/spring/entries/53{?projection}",
                        "templated": true
                    },
                    "user": {
                        "href": "http://localhost:4200/rest/spring/entries/53/user"
                    },
                    "task": {
                        "href": "http://localhost:4200/rest/spring/entries/53/task"
                    }
                }
            },
            {
                "id": 54,
                "time": 1.0,
                "date": 1511740800000,
                "taskId": 54,
                "_links": {
                    "self": {
                        "href": "http://localhost:4200/rest/spring/entries/54"
                    },
                    "entry": {
                        "href": "http://localhost:4200/rest/spring/entries/54{?projection}",
                        "templated": true
                    },
                    "user": {
                        "href": "http://localhost:4200/rest/spring/entries/54/user"
                    },
                    "task": {
                        "href": "http://localhost:4200/rest/spring/entries/54/task"
                    }
                }
            },
            {
                "id": 55,
                "time": 1.0,
                "date": 1511740800000,
                "taskId": 55,
                "_links": {
                    "self": {
                        "href": "http://localhost:4200/rest/spring/entries/55"
                    },
                    "entry": {
                        "href": "http://localhost:4200/rest/spring/entries/55{?projection}",
                        "templated": true
                    },
                    "user": {
                        "href": "http://localhost:4200/rest/spring/entries/55/user"
                    },
                    "task": {
                        "href": "http://localhost:4200/rest/spring/entries/55/task"
                    }
                }
            },
            {
                "id": 56,
                "time": 1.0,
                "date": 1511740800000,
                "taskId": 56,
                "_links": {
                    "self": {
                        "href": "http://localhost:4200/rest/spring/entries/56"
                    },
                    "entry": {
                        "href": "http://localhost:4200/rest/spring/entries/56{?projection}",
                        "templated": true
                    },
                    "user": {
                        "href": "http://localhost:4200/rest/spring/entries/56/user"
                    },
                    "task": {
                        "href": "http://localhost:4200/rest/spring/entries/56/task"
                    }
                }
            },
            {
                "id": 57,
                "time": 1.0,
                "date": 1511740800000,
                "taskId": 57,
                "_links": {
                    "self": {
                        "href": "http://localhost:4200/rest/spring/entries/57"
                    },
                    "entry": {
                        "href": "http://localhost:4200/rest/spring/entries/57{?projection}",
                        "templated": true
                    },
                    "user": {
                        "href": "http://localhost:4200/rest/spring/entries/57/user"
                    },
                    "task": {
                        "href": "http://localhost:4200/rest/spring/entries/57/task"
                    }
                }
            },
            {
                "id": 58,
                "time": 1.0,
                "date": 1511740800000,
                "taskId": 58,
                "_links": {
                    "self": {
                        "href": "http://localhost:4200/rest/spring/entries/58"
                    },
                    "entry": {
                        "href": "http://localhost:4200/rest/spring/entries/58{?projection}",
                        "templated": true
                    },
                    "user": {
                        "href": "http://localhost:4200/rest/spring/entries/58/user"
                    },
                    "task": {
                        "href": "http://localhost:4200/rest/spring/entries/58/task"
                    }
                }
            },
            {
                "id": 59,
                "time": 1.0,
                "date": 1511740800000,
                "taskId": 59,
                "_links": {
                    "self": {
                        "href": "http://localhost:4200/rest/spring/entries/59"
                    },
                    "entry": {
                        "href": "http://localhost:4200/rest/spring/entries/59{?projection}",
                        "templated": true
                    },
                    "user": {
                        "href": "http://localhost:4200/rest/spring/entries/59/user"
                    },
                    "task": {
                        "href": "http://localhost:4200/rest/spring/entries/59/task"
                    }
                }
            },
            {
                "id": 60,
                "time": 1.0,
                "date": 1511740800000,
                "taskId": 60,
                "_links": {
                    "self": {
                        "href": "http://localhost:4200/rest/spring/entries/60"
                    },
                    "entry": {
                        "href": "http://localhost:4200/rest/spring/entries/60{?projection}",
                        "templated": true
                    },
                    "user": {
                        "href": "http://localhost:4200/rest/spring/entries/60/user"
                    },
                    "task": {
                        "href": "http://localhost:4200/rest/spring/entries/60/task"
                    }
                }
            },
            {
                "id": 61,
                "time": 1.0,
                "date": 1511740800000,
                "taskId": 61,
                "_links": {
                    "self": {
                        "href": "http://localhost:4200/rest/spring/entries/61"
                    },
                    "entry": {
                        "href": "http://localhost:4200/rest/spring/entries/61{?projection}",
                        "templated": true
                    },
                    "user": {
                        "href": "http://localhost:4200/rest/spring/entries/61/user"
                    },
                    "task": {
                        "href": "http://localhost:4200/rest/spring/entries/61/task"
                    }
                }
            },
            {
                "id": 62,
                "time": 1.0,
                "date": 1511740800000,
                "taskId": 62,
                "_links": {
                    "self": {
                        "href": "http://localhost:4200/rest/spring/entries/62"
                    },
                    "entry": {
                        "href": "http://localhost:4200/rest/spring/entries/62{?projection}",
                        "templated": true
                    },
                    "user": {
                        "href": "http://localhost:4200/rest/spring/entries/62/user"
                    },
                    "task": {
                        "href": "http://localhost:4200/rest/spring/entries/62/task"
                    }
                }
            },
            {
                "id": 63,
                "time": 1.0,
                "date": 1511740800000,
                "taskId": 63,
                "_links": {
                    "self": {
                        "href": "http://localhost:4200/rest/spring/entries/63"
                    },
                    "entry": {
                        "href": "http://localhost:4200/rest/spring/entries/63{?projection}",
                        "templated": true
                    },
                    "user": {
                        "href": "http://localhost:4200/rest/spring/entries/63/user"
                    },
                    "task": {
                        "href": "http://localhost:4200/rest/spring/entries/63/task"
                    }
                }
            },
            {
                "id": 64,
                "time": 1.0,
                "date": 1511740800000,
                "taskId": 64,
                "_links": {
                    "self": {
                        "href": "http://localhost:4200/rest/spring/entries/64"
                    },
                    "entry": {
                        "href": "http://localhost:4200/rest/spring/entries/64{?projection}",
                        "templated": true
                    },
                    "user": {
                        "href": "http://localhost:4200/rest/spring/entries/64/user"
                    },
                    "task": {
                        "href": "http://localhost:4200/rest/spring/entries/64/task"
                    }
                }
            },
            {
                "id": 65,
                "time": 1.0,
                "date": 1511740800000,
                "taskId": 65,
                "_links": {
                    "self": {
                        "href": "http://localhost:4200/rest/spring/entries/65"
                    },
                    "entry": {
                        "href": "http://localhost:4200/rest/spring/entries/65{?projection}",
                        "templated": true
                    },
                    "user": {
                        "href": "http://localhost:4200/rest/spring/entries/65/user"
                    },
                    "task": {
                        "href": "http://localhost:4200/rest/spring/entries/65/task"
                    }
                }
            },
            {
                "id": 66,
                "time": 1.0,
                "date": 1511740800000,
                "taskId": 66,
                "_links": {
                    "self": {
                        "href": "http://localhost:4200/rest/spring/entries/66"
                    },
                    "entry": {
                        "href": "http://localhost:4200/rest/spring/entries/66{?projection}",
                        "templated": true
                    },
                    "user": {
                        "href": "http://localhost:4200/rest/spring/entries/66/user"
                    },
                    "task": {
                        "href": "http://localhost:4200/rest/spring/entries/66/task"
                    }
                }
            },
            {
                "id": 67,
                "time": 1.0,
                "date": 1511740800000,
                "taskId": 67,
                "_links": {
                    "self": {
                        "href": "http://localhost:4200/rest/spring/entries/67"
                    },
                    "entry": {
                        "href": "http://localhost:4200/rest/spring/entries/67{?projection}",
                        "templated": true
                    },
                    "user": {
                        "href": "http://localhost:4200/rest/spring/entries/67/user"
                    },
                    "task": {
                        "href": "http://localhost:4200/rest/spring/entries/67/task"
                    }
                }
            },
            {
                "id": 68,
                "time": 1.0,
                "date": 1511740800000,
                "taskId": 68,
                "_links": {
                    "self": {
                        "href": "http://localhost:4200/rest/spring/entries/68"
                    },
                    "entry": {
                        "href": "http://localhost:4200/rest/spring/entries/68{?projection}",
                        "templated": true
                    },
                    "user": {
                        "href": "http://localhost:4200/rest/spring/entries/68/user"
                    },
                    "task": {
                        "href": "http://localhost:4200/rest/spring/entries/68/task"
                    }
                }
            },
            {
                "id": 69,
                "time": 1.0,
                "date": 1511740800000,
                "taskId": 69,
                "_links": {
                    "self": {
                        "href": "http://localhost:4200/rest/spring/entries/69"
                    },
                    "entry": {
                        "href": "http://localhost:4200/rest/spring/entries/69{?projection}",
                        "templated": true
                    },
                    "user": {
                        "href": "http://localhost:4200/rest/spring/entries/69/user"
                    },
                    "task": {
                        "href": "http://localhost:4200/rest/spring/entries/69/task"
                    }
                }
            },
            {
                "id": 70,
                "time": 1.0,
                "date": 1511740800000,
                "taskId": 70,
                "_links": {
                    "self": {
                        "href": "http://localhost:4200/rest/spring/entries/70"
                    },
                    "entry": {
                        "href": "http://localhost:4200/rest/spring/entries/70{?projection}",
                        "templated": true
                    },
                    "user": {
                        "href": "http://localhost:4200/rest/spring/entries/70/user"
                    },
                    "task": {
                        "href": "http://localhost:4200/rest/spring/entries/70/task"
                    }
                }
            },
            {
                "id": 71,
                "time": 1.0,
                "date": 1511740800000,
                "taskId": 71,
                "_links": {
                    "self": {
                        "href": "http://localhost:4200/rest/spring/entries/71"
                    },
                    "entry": {
                        "href": "http://localhost:4200/rest/spring/entries/71{?projection}",
                        "templated": true
                    },
                    "user": {
                        "href": "http://localhost:4200/rest/spring/entries/71/user"
                    },
                    "task": {
                        "href": "http://localhost:4200/rest/spring/entries/71/task"
                    }
                }
            },
            {
                "id": 72,
                "time": 1.0,
                "date": 1511740800000,
                "taskId": 72,
                "_links": {
                    "self": {
                        "href": "http://localhost:4200/rest/spring/entries/72"
                    },
                    "entry": {
                        "href": "http://localhost:4200/rest/spring/entries/72{?projection}",
                        "templated": true
                    },
                    "user": {
                        "href": "http://localhost:4200/rest/spring/entries/72/user"
                    },
                    "task": {
                        "href": "http://localhost:4200/rest/spring/entries/72/task"
                    }
                }
            },
            {
                "id": 73,
                "time": 1.0,
                "date": 1511740800000,
                "taskId": 73,
                "_links": {
                    "self": {
                        "href": "http://localhost:4200/rest/spring/entries/73"
                    },
                    "entry": {
                        "href": "http://localhost:4200/rest/spring/entries/73{?projection}",
                        "templated": true
                    },
                    "user": {
                        "href": "http://localhost:4200/rest/spring/entries/73/user"
                    },
                    "task": {
                        "href": "http://localhost:4200/rest/spring/entries/73/task"
                    }
                }
            },
            {
                "id": 74,
                "time": 1.0,
                "date": 1511740800000,
                "taskId": 74,
                "_links": {
                    "self": {
                        "href": "http://localhost:4200/rest/spring/entries/74"
                    },
                    "entry": {
                        "href": "http://localhost:4200/rest/spring/entries/74{?projection}",
                        "templated": true
                    },
                    "user": {
                        "href": "http://localhost:4200/rest/spring/entries/74/user"
                    },
                    "task": {
                        "href": "http://localhost:4200/rest/spring/entries/74/task"
                    }
                }
            },
            {
                "id": 75,
                "time": 1.0,
                "date": 1511740800000,
                "taskId": 75,
                "_links": {
                    "self": {
                        "href": "http://localhost:4200/rest/spring/entries/75"
                    },
                    "entry": {
                        "href": "http://localhost:4200/rest/spring/entries/75{?projection}",
                        "templated": true
                    },
                    "user": {
                        "href": "http://localhost:4200/rest/spring/entries/75/user"
                    },
                    "task": {
                        "href": "http://localhost:4200/rest/spring/entries/75/task"
                    }
                }
            },
            {
                "id": 76,
                "time": 1.0,
                "date": 1511740800000,
                "taskId": 76,
                "_links": {
                    "self": {
                        "href": "http://localhost:4200/rest/spring/entries/76"
                    },
                    "entry": {
                        "href": "http://localhost:4200/rest/spring/entries/76{?projection}",
                        "templated": true
                    },
                    "user": {
                        "href": "http://localhost:4200/rest/spring/entries/76/user"
                    },
                    "task": {
                        "href": "http://localhost:4200/rest/spring/entries/76/task"
                    }
                }
            },
            {
                "id": 77,
                "time": 1.0,
                "date": 1511740800000,
                "taskId": 77,
                "_links": {
                    "self": {
                        "href": "http://localhost:4200/rest/spring/entries/77"
                    },
                    "entry": {
                        "href": "http://localhost:4200/rest/spring/entries/77{?projection}",
                        "templated": true
                    },
                    "user": {
                        "href": "http://localhost:4200/rest/spring/entries/77/user"
                    },
                    "task": {
                        "href": "http://localhost:4200/rest/spring/entries/77/task"
                    }
                }
            },
            {
                "id": 78,
                "time": 1.0,
                "date": 1511740800000,
                "taskId": 78,
                "_links": {
                    "self": {
                        "href": "http://localhost:4200/rest/spring/entries/78"
                    },
                    "entry": {
                        "href": "http://localhost:4200/rest/spring/entries/78{?projection}",
                        "templated": true
                    },
                    "user": {
                        "href": "http://localhost:4200/rest/spring/entries/78/user"
                    },
                    "task": {
                        "href": "http://localhost:4200/rest/spring/entries/78/task"
                    }
                }
            },
            {
                "id": 79,
                "time": 1.0,
                "date": 1511740800000,
                "taskId": 79,
                "_links": {
                    "self": {
                        "href": "http://localhost:4200/rest/spring/entries/79"
                    },
                    "entry": {
                        "href": "http://localhost:4200/rest/spring/entries/79{?projection}",
                        "templated": true
                    },
                    "user": {
                        "href": "http://localhost:4200/rest/spring/entries/79/user"
                    },
                    "task": {
                        "href": "http://localhost:4200/rest/spring/entries/79/task"
                    }
                }
            },
            {
                "id": 80,
                "time": 1.0,
                "date": 1511740800000,
                "taskId": 80,
                "_links": {
                    "self": {
                        "href": "http://localhost:4200/rest/spring/entries/80"
                    },
                    "entry": {
                        "href": "http://localhost:4200/rest/spring/entries/80{?projection}",
                        "templated": true
                    },
                    "user": {
                        "href": "http://localhost:4200/rest/spring/entries/80/user"
                    },
                    "task": {
                        "href": "http://localhost:4200/rest/spring/entries/80/task"
                    }
                }
            },
            {
                "id": 81,
                "time": 1.0,
                "date": 1511740800000,
                "taskId": 81,
                "_links": {
                    "self": {
                        "href": "http://localhost:4200/rest/spring/entries/81"
                    },
                    "entry": {
                        "href": "http://localhost:4200/rest/spring/entries/81{?projection}",
                        "templated": true
                    },
                    "user": {
                        "href": "http://localhost:4200/rest/spring/entries/81/user"
                    },
                    "task": {
                        "href": "http://localhost:4200/rest/spring/entries/81/task"
                    }
                }
            },
            {
                "id": 82,
                "time": 1.0,
                "date": 1511740800000,
                "taskId": 82,
                "_links": {
                    "self": {
                        "href": "http://localhost:4200/rest/spring/entries/82"
                    },
                    "entry": {
                        "href": "http://localhost:4200/rest/spring/entries/82{?projection}",
                        "templated": true
                    },
                    "user": {
                        "href": "http://localhost:4200/rest/spring/entries/82/user"
                    },
                    "task": {
                        "href": "http://localhost:4200/rest/spring/entries/82/task"
                    }
                }
            },
            {
                "id": 83,
                "time": 1.0,
                "date": 1511740800000,
                "taskId": 83,
                "_links": {
                    "self": {
                        "href": "http://localhost:4200/rest/spring/entries/83"
                    },
                    "entry": {
                        "href": "http://localhost:4200/rest/spring/entries/83{?projection}",
                        "templated": true
                    },
                    "user": {
                        "href": "http://localhost:4200/rest/spring/entries/83/user"
                    },
                    "task": {
                        "href": "http://localhost:4200/rest/spring/entries/83/task"
                    }
                }
            },
            {
                "id": 84,
                "time": 1.0,
                "date": 1511740800000,
                "taskId": 84,
                "_links": {
                    "self": {
                        "href": "http://localhost:4200/rest/spring/entries/84"
                    },
                    "entry": {
                        "href": "http://localhost:4200/rest/spring/entries/84{?projection}",
                        "templated": true
                    },
                    "user": {
                        "href": "http://localhost:4200/rest/spring/entries/84/user"
                    },
                    "task": {
                        "href": "http://localhost:4200/rest/spring/entries/84/task"
                    }
                }
            },
            {
                "id": 85,
                "time": 1.0,
                "date": 1511740800000,
                "taskId": 85,
                "_links": {
                    "self": {
                        "href": "http://localhost:4200/rest/spring/entries/85"
                    },
                    "entry": {
                        "href": "http://localhost:4200/rest/spring/entries/85{?projection}",
                        "templated": true
                    },
                    "user": {
                        "href": "http://localhost:4200/rest/spring/entries/85/user"
                    },
                    "task": {
                        "href": "http://localhost:4200/rest/spring/entries/85/task"
                    }
                }
            },
            {
                "id": 86,
                "time": 1.0,
                "date": 1511740800000,
                "taskId": 86,
                "_links": {
                    "self": {
                        "href": "http://localhost:4200/rest/spring/entries/86"
                    },
                    "entry": {
                        "href": "http://localhost:4200/rest/spring/entries/86{?projection}",
                        "templated": true
                    },
                    "user": {
                        "href": "http://localhost:4200/rest/spring/entries/86/user"
                    },
                    "task": {
                        "href": "http://localhost:4200/rest/spring/entries/86/task"
                    }
                }
            },
            {
                "id": 87,
                "time": 1.0,
                "date": 1511740800000,
                "taskId": 87,
                "_links": {
                    "self": {
                        "href": "http://localhost:4200/rest/spring/entries/87"
                    },
                    "entry": {
                        "href": "http://localhost:4200/rest/spring/entries/87{?projection}",
                        "templated": true
                    },
                    "user": {
                        "href": "http://localhost:4200/rest/spring/entries/87/user"
                    },
                    "task": {
                        "href": "http://localhost:4200/rest/spring/entries/87/task"
                    }
                }
            },
            {
                "id": 88,
                "time": 1.0,
                "date": 1511740800000,
                "taskId": 88,
                "_links": {
                    "self": {
                        "href": "http://localhost:4200/rest/spring/entries/88"
                    },
                    "entry": {
                        "href": "http://localhost:4200/rest/spring/entries/88{?projection}",
                        "templated": true
                    },
                    "user": {
                        "href": "http://localhost:4200/rest/spring/entries/88/user"
                    },
                    "task": {
                        "href": "http://localhost:4200/rest/spring/entries/88/task"
                    }
                }
            },
            {
                "id": 89,
                "time": 1.0,
                "date": 1511740800000,
                "taskId": 89,
                "_links": {
                    "self": {
                        "href": "http://localhost:4200/rest/spring/entries/89"
                    },
                    "entry": {
                        "href": "http://localhost:4200/rest/spring/entries/89{?projection}",
                        "templated": true
                    },
                    "user": {
                        "href": "http://localhost:4200/rest/spring/entries/89/user"
                    },
                    "task": {
                        "href": "http://localhost:4200/rest/spring/entries/89/task"
                    }
                }
            },
            {
                "id": 90,
                "time": 1.0,
                "date": 1511740800000,
                "taskId": 90,
                "_links": {
                    "self": {
                        "href": "http://localhost:4200/rest/spring/entries/90"
                    },
                    "entry": {
                        "href": "http://localhost:4200/rest/spring/entries/90{?projection}",
                        "templated": true
                    },
                    "user": {
                        "href": "http://localhost:4200/rest/spring/entries/90/user"
                    },
                    "task": {
                        "href": "http://localhost:4200/rest/spring/entries/90/task"
                    }
                }
            },
            {
                "id": 91,
                "time": 1.0,
                "date": 1511740800000,
                "taskId": 91,
                "_links": {
                    "self": {
                        "href": "http://localhost:4200/rest/spring/entries/91"
                    },
                    "entry": {
                        "href": "http://localhost:4200/rest/spring/entries/91{?projection}",
                        "templated": true
                    },
                    "user": {
                        "href": "http://localhost:4200/rest/spring/entries/91/user"
                    },
                    "task": {
                        "href": "http://localhost:4200/rest/spring/entries/91/task"
                    }
                }
            },
            {
                "id": 92,
                "time": 1.0,
                "date": 1511740800000,
                "taskId": 92,
                "_links": {
                    "self": {
                        "href": "http://localhost:4200/rest/spring/entries/92"
                    },
                    "entry": {
                        "href": "http://localhost:4200/rest/spring/entries/92{?projection}",
                        "templated": true
                    },
                    "user": {
                        "href": "http://localhost:4200/rest/spring/entries/92/user"
                    },
                    "task": {
                        "href": "http://localhost:4200/rest/spring/entries/92/task"
                    }
                }
            },
            {
                "id": 93,
                "time": 1.0,
                "date": 1511740800000,
                "taskId": 93,
                "_links": {
                    "self": {
                        "href": "http://localhost:4200/rest/spring/entries/93"
                    },
                    "entry": {
                        "href": "http://localhost:4200/rest/spring/entries/93{?projection}",
                        "templated": true
                    },
                    "user": {
                        "href": "http://localhost:4200/rest/spring/entries/93/user"
                    },
                    "task": {
                        "href": "http://localhost:4200/rest/spring/entries/93/task"
                    }
                }
            },
            {
                "id": 94,
                "time": 1.0,
                "date": 1511740800000,
                "taskId": 94,
                "_links": {
                    "self": {
                        "href": "http://localhost:4200/rest/spring/entries/94"
                    },
                    "entry": {
                        "href": "http://localhost:4200/rest/spring/entries/94{?projection}",
                        "templated": true
                    },
                    "user": {
                        "href": "http://localhost:4200/rest/spring/entries/94/user"
                    },
                    "task": {
                        "href": "http://localhost:4200/rest/spring/entries/94/task"
                    }
                }
            },
            {
                "id": 95,
                "time": 1.0,
                "date": 1511740800000,
                "taskId": 95,
                "_links": {
                    "self": {
                        "href": "http://localhost:4200/rest/spring/entries/95"
                    },
                    "entry": {
                        "href": "http://localhost:4200/rest/spring/entries/95{?projection}",
                        "templated": true
                    },
                    "user": {
                        "href": "http://localhost:4200/rest/spring/entries/95/user"
                    },
                    "task": {
                        "href": "http://localhost:4200/rest/spring/entries/95/task"
                    }
                }
            },
            {
                "id": 96,
                "time": 1.0,
                "date": 1511740800000,
                "taskId": 96,
                "_links": {
                    "self": {
                        "href": "http://localhost:4200/rest/spring/entries/96"
                    },
                    "entry": {
                        "href": "http://localhost:4200/rest/spring/entries/96{?projection}",
                        "templated": true
                    },
                    "user": {
                        "href": "http://localhost:4200/rest/spring/entries/96/user"
                    },
                    "task": {
                        "href": "http://localhost:4200/rest/spring/entries/96/task"
                    }
                }
            },
            {
                "id": 97,
                "time": 1.0,
                "date": 1511740800000,
                "taskId": 97,
                "_links": {
                    "self": {
                        "href": "http://localhost:4200/rest/spring/entries/97"
                    },
                    "entry": {
                        "href": "http://localhost:4200/rest/spring/entries/97{?projection}",
                        "templated": true
                    },
                    "user": {
                        "href": "http://localhost:4200/rest/spring/entries/97/user"
                    },
                    "task": {
                        "href": "http://localhost:4200/rest/spring/entries/97/task"
                    }
                }
            },
            {
                "id": 98,
                "time": 1.0,
                "date": 1511740800000,
                "taskId": 98,
                "_links": {
                    "self": {
                        "href": "http://localhost:4200/rest/spring/entries/98"
                    },
                    "entry": {
                        "href": "http://localhost:4200/rest/spring/entries/98{?projection}",
                        "templated": true
                    },
                    "user": {
                        "href": "http://localhost:4200/rest/spring/entries/98/user"
                    },
                    "task": {
                        "href": "http://localhost:4200/rest/spring/entries/98/task"
                    }
                }
            },
            {
                "id": 99,
                "time": 1.0,
                "date": 1511740800000,
                "taskId": 99,
                "_links": {
                    "self": {
                        "href": "http://localhost:4200/rest/spring/entries/99"
                    },
                    "entry": {
                        "href": "http://localhost:4200/rest/spring/entries/99{?projection}",
                        "templated": true
                    },
                    "user": {
                        "href": "http://localhost:4200/rest/spring/entries/99/user"
                    },
                    "task": {
                        "href": "http://localhost:4200/rest/spring/entries/99/task"
                    }
                }
            },
            {
                "id": 100,
                "time": 1.0,
                "date": 1511740800000,
                "taskId": 100,
                "_links": {
                    "self": {
                        "href": "http://localhost:4200/rest/spring/entries/100"
                    },
                    "entry": {
                        "href": "http://localhost:4200/rest/spring/entries/100{?projection}",
                        "templated": true
                    },
                    "user": {
                        "href": "http://localhost:4200/rest/spring/entries/100/user"
                    },
                    "task": {
                        "href": "http://localhost:4200/rest/spring/entries/100/task"
                    }
                }
            }
        ]
    },
    "_links": {
        "self": {
            "href": "http://localhost:4200/rest/spring/entries/search/findByUserIdAndDateBetween?userId=1&start=2017-11-27T00:00:00.000Z&end=2017-12-03T00:00:00.000Z&projection=entryProjection"
        }
    }
}