{
  "_embedded" : {
    "projects" : [ {
      "name" : "Project 1",
      "tasks" : [ {
        "name" : "Task 1",
        "id" : 1,
        "_links" : {
          "self" : {
            "href" : "http://localhost:8080/rest/spring/tasks/1"
          },
          "project" : {
            "href" : "http://localhost:8080/rest/spring/tasks/1/project"
          }
        }
      }, {
        "name" : "Task 2",
        "id" : 2,
        "_links" : {
          "self" : {
            "href" : "http://localhost:8080/rest/spring/tasks/2"
          },
          "project" : {
            "href" : "http://localhost:8080/rest/spring/tasks/2/project"
          }
        }
      }, {
        "name" : "Task 3",
        "id" : 3,
        "_links" : {
          "self" : {
            "href" : "http://localhost:8080/rest/spring/tasks/3"
          },
          "project" : {
            "href" : "http://localhost:8080/rest/spring/tasks/3/project"
          }
        }
      }, {
        "name" : "Task 4",
        "id" : 4,
        "_links" : {
          "self" : {
            "href" : "http://localhost:8080/rest/spring/tasks/4"
          },
          "project" : {
            "href" : "http://localhost:8080/rest/spring/tasks/4/project"
          }
        }
      }, {
        "name" : "Task 5",
        "id" : 5,
        "_links" : {
          "self" : {
            "href" : "http://localhost:8080/rest/spring/tasks/5"
          },
          "project" : {
            "href" : "http://localhost:8080/rest/spring/tasks/5/project"
          }
        }
      }, {
        "name" : "Task 6",
        "id" : 6,
        "_links" : {
          "self" : {
            "href" : "http://localhost:8080/rest/spring/tasks/6"
          },
          "project" : {
            "href" : "http://localhost:8080/rest/spring/tasks/6/project"
          }
        }
      }, {
        "name" : "Task 7",
        "id" : 7,
        "_links" : {
          "self" : {
            "href" : "http://localhost:8080/rest/spring/tasks/7"
          },
          "project" : {
            "href" : "http://localhost:8080/rest/spring/tasks/7/project"
          }
        }
      }, {
        "name" : "Task 8",
        "id" : 8,
        "_links" : {
          "self" : {
            "href" : "http://localhost:8080/rest/spring/tasks/8"
          },
          "project" : {
            "href" : "http://localhost:8080/rest/spring/tasks/8/project"
          }
        }
      }, {
        "name" : "Task 9",
        "id" : 9,
        "_links" : {
          "self" : {
            "href" : "http://localhost:8080/rest/spring/tasks/9"
          },
          "project" : {
            "href" : "http://localhost:8080/rest/spring/tasks/9/project"
          }
        }
      }, {
        "name" : "Task 10",
        "id" : 10,
        "_links" : {
          "self" : {
            "href" : "http://localhost:8080/rest/spring/tasks/10"
          },
          "project" : {
            "href" : "http://localhost:8080/rest/spring/tasks/10/project"
          }
        }
      } ],
      "_links" : {
        "self" : {
          "href" : "http://localhost:8080/rest/spring/projects/1"
        },
        "project" : {
          "href" : "http://localhost:8080/rest/spring/projects/1{?projection}",
          "templated" : true
        },
        "tasks" : {
          "href" : "http://localhost:8080/rest/spring/projects/1/tasks"
        },
        "members" : {
          "href" : "http://localhost:8080/rest/spring/projects/1/members"
        }
      }
    }, {
      "name" : "Project 2",
      "tasks" : [ {
        "name" : "Task 11",
        "id" : 11,
        "_links" : {
          "self" : {
            "href" : "http://localhost:8080/rest/spring/tasks/11"
          },
          "project" : {
            "href" : "http://localhost:8080/rest/spring/tasks/11/project"
          }
        }
      }, {
        "name" : "Task 12",
        "id" : 12,
        "_links" : {
          "self" : {
            "href" : "http://localhost:8080/rest/spring/tasks/12"
          },
          "project" : {
            "href" : "http://localhost:8080/rest/spring/tasks/12/project"
          }
        }
      }, {
        "name" : "Task 13",
        "id" : 13,
        "_links" : {
          "self" : {
            "href" : "http://localhost:8080/rest/spring/tasks/13"
          },
          "project" : {
            "href" : "http://localhost:8080/rest/spring/tasks/13/project"
          }
        }
      }, {
        "name" : "Task 14",
        "id" : 14,
        "_links" : {
          "self" : {
            "href" : "http://localhost:8080/rest/spring/tasks/14"
          },
          "project" : {
            "href" : "http://localhost:8080/rest/spring/tasks/14/project"
          }
        }
      }, {
        "name" : "Task 15",
        "id" : 15,
        "_links" : {
          "self" : {
            "href" : "http://localhost:8080/rest/spring/tasks/15"
          },
          "project" : {
            "href" : "http://localhost:8080/rest/spring/tasks/15/project"
          }
        }
      }, {
        "name" : "Task 16",
        "id" : 16,
        "_links" : {
          "self" : {
            "href" : "http://localhost:8080/rest/spring/tasks/16"
          },
          "project" : {
            "href" : "http://localhost:8080/rest/spring/tasks/16/project"
          }
        }
      }, {
        "name" : "Task 17",
        "id" : 17,
        "_links" : {
          "self" : {
            "href" : "http://localhost:8080/rest/spring/tasks/17"
          },
          "project" : {
            "href" : "http://localhost:8080/rest/spring/tasks/17/project"
          }
        }
      }, {
        "name" : "Task 18",
        "id" : 18,
        "_links" : {
          "self" : {
            "href" : "http://localhost:8080/rest/spring/tasks/18"
          },
          "project" : {
            "href" : "http://localhost:8080/rest/spring/tasks/18/project"
          }
        }
      }, {
        "name" : "Task 19",
        "id" : 19,
        "_links" : {
          "self" : {
            "href" : "http://localhost:8080/rest/spring/tasks/19"
          },
          "project" : {
            "href" : "http://localhost:8080/rest/spring/tasks/19/project"
          }
        }
      }, {
        "name" : "Task 20",
        "id" : 20,
        "_links" : {
          "self" : {
            "href" : "http://localhost:8080/rest/spring/tasks/20"
          },
          "project" : {
            "href" : "http://localhost:8080/rest/spring/tasks/20/project"
          }
        }
      } ],
      "_links" : {
        "self" : {
          "href" : "http://localhost:8080/rest/spring/projects/2"
        },
        "project" : {
          "href" : "http://localhost:8080/rest/spring/projects/2{?projection}",
          "templated" : true
        },
        "tasks" : {
          "href" : "http://localhost:8080/rest/spring/projects/2/tasks"
        },
        "members" : {
          "href" : "http://localhost:8080/rest/spring/projects/2/members"
        }
      }
    }, {
      "name" : "Project 3",
      "tasks" : [ {
        "name" : "Task 21",
        "id" : 21,
        "_links" : {
          "self" : {
            "href" : "http://localhost:8080/rest/spring/tasks/21"
          },
          "project" : {
            "href" : "http://localhost:8080/rest/spring/tasks/21/project"
          }
        }
      }, {
        "name" : "Task 22",
        "id" : 22,
        "_links" : {
          "self" : {
            "href" : "http://localhost:8080/rest/spring/tasks/22"
          },
          "project" : {
            "href" : "http://localhost:8080/rest/spring/tasks/22/project"
          }
        }
      }, {
        "name" : "Task 23",
        "id" : 23,
        "_links" : {
          "self" : {
            "href" : "http://localhost:8080/rest/spring/tasks/23"
          },
          "project" : {
            "href" : "http://localhost:8080/rest/spring/tasks/23/project"
          }
        }
      }, {
        "name" : "Task 24",
        "id" : 24,
        "_links" : {
          "self" : {
            "href" : "http://localhost:8080/rest/spring/tasks/24"
          },
          "project" : {
            "href" : "http://localhost:8080/rest/spring/tasks/24/project"
          }
        }
      }, {
        "name" : "Task 25",
        "id" : 25,
        "_links" : {
          "self" : {
            "href" : "http://localhost:8080/rest/spring/tasks/25"
          },
          "project" : {
            "href" : "http://localhost:8080/rest/spring/tasks/25/project"
          }
        }
      }, {
        "name" : "Task 26",
        "id" : 26,
        "_links" : {
          "self" : {
            "href" : "http://localhost:8080/rest/spring/tasks/26"
          },
          "project" : {
            "href" : "http://localhost:8080/rest/spring/tasks/26/project"
          }
        }
      }, {
        "name" : "Task 27",
        "id" : 27,
        "_links" : {
          "self" : {
            "href" : "http://localhost:8080/rest/spring/tasks/27"
          },
          "project" : {
            "href" : "http://localhost:8080/rest/spring/tasks/27/project"
          }
        }
      }, {
        "name" : "Task 28",
        "id" : 28,
        "_links" : {
          "self" : {
            "href" : "http://localhost:8080/rest/spring/tasks/28"
          },
          "project" : {
            "href" : "http://localhost:8080/rest/spring/tasks/28/project"
          }
        }
      }, {
        "name" : "Task 29",
        "id" : 29,
        "_links" : {
          "self" : {
            "href" : "http://localhost:8080/rest/spring/tasks/29"
          },
          "project" : {
            "href" : "http://localhost:8080/rest/spring/tasks/29/project"
          }
        }
      }, {
        "name" : "Task 30",
        "id" : 30,
        "_links" : {
          "self" : {
            "href" : "http://localhost:8080/rest/spring/tasks/30"
          },
          "project" : {
            "href" : "http://localhost:8080/rest/spring/tasks/30/project"
          }
        }
      } ],
      "_links" : {
        "self" : {
          "href" : "http://localhost:8080/rest/spring/projects/3"
        },
        "project" : {
          "href" : "http://localhost:8080/rest/spring/projects/3{?projection}",
          "templated" : true
        },
        "tasks" : {
          "href" : "http://localhost:8080/rest/spring/projects/3/tasks"
        },
        "members" : {
          "href" : "http://localhost:8080/rest/spring/projects/3/members"
        }
      }
    }, {
      "name" : "Project 4",
      "tasks" : [ {
        "name" : "Task 31",
        "id" : 31,
        "_links" : {
          "self" : {
            "href" : "http://localhost:8080/rest/spring/tasks/31"
          },
          "project" : {
            "href" : "http://localhost:8080/rest/spring/tasks/31/project"
          }
        }
      }, {
        "name" : "Task 32",
        "id" : 32,
        "_links" : {
          "self" : {
            "href" : "http://localhost:8080/rest/spring/tasks/32"
          },
          "project" : {
            "href" : "http://localhost:8080/rest/spring/tasks/32/project"
          }
        }
      }, {
        "name" : "Task 33",
        "id" : 33,
        "_links" : {
          "self" : {
            "href" : "http://localhost:8080/rest/spring/tasks/33"
          },
          "project" : {
            "href" : "http://localhost:8080/rest/spring/tasks/33/project"
          }
        }
      }, {
        "name" : "Task 34",
        "id" : 34,
        "_links" : {
          "self" : {
            "href" : "http://localhost:8080/rest/spring/tasks/34"
          },
          "project" : {
            "href" : "http://localhost:8080/rest/spring/tasks/34/project"
          }
        }
      }, {
        "name" : "Task 35",
        "id" : 35,
        "_links" : {
          "self" : {
            "href" : "http://localhost:8080/rest/spring/tasks/35"
          },
          "project" : {
            "href" : "http://localhost:8080/rest/spring/tasks/35/project"
          }
        }
      }, {
        "name" : "Task 36",
        "id" : 36,
        "_links" : {
          "self" : {
            "href" : "http://localhost:8080/rest/spring/tasks/36"
          },
          "project" : {
            "href" : "http://localhost:8080/rest/spring/tasks/36/project"
          }
        }
      }, {
        "name" : "Task 37",
        "id" : 37,
        "_links" : {
          "self" : {
            "href" : "http://localhost:8080/rest/spring/tasks/37"
          },
          "project" : {
            "href" : "http://localhost:8080/rest/spring/tasks/37/project"
          }
        }
      }, {
        "name" : "Task 38",
        "id" : 38,
        "_links" : {
          "self" : {
            "href" : "http://localhost:8080/rest/spring/tasks/38"
          },
          "project" : {
            "href" : "http://localhost:8080/rest/spring/tasks/38/project"
          }
        }
      }, {
        "name" : "Task 39",
        "id" : 39,
        "_links" : {
          "self" : {
            "href" : "http://localhost:8080/rest/spring/tasks/39"
          },
          "project" : {
            "href" : "http://localhost:8080/rest/spring/tasks/39/project"
          }
        }
      }, {
        "name" : "Task 40",
        "id" : 40,
        "_links" : {
          "self" : {
            "href" : "http://localhost:8080/rest/spring/tasks/40"
          },
          "project" : {
            "href" : "http://localhost:8080/rest/spring/tasks/40/project"
          }
        }
      } ],
      "_links" : {
        "self" : {
          "href" : "http://localhost:8080/rest/spring/projects/4"
        },
        "project" : {
          "href" : "http://localhost:8080/rest/spring/projects/4{?projection}",
          "templated" : true
        },
        "tasks" : {
          "href" : "http://localhost:8080/rest/spring/projects/4/tasks"
        },
        "members" : {
          "href" : "http://localhost:8080/rest/spring/projects/4/members"
        }
      }
    }, {
      "name" : "Project 5",
      "tasks" : [ {
        "name" : "Task 41",
        "id" : 41,
        "_links" : {
          "self" : {
            "href" : "http://localhost:8080/rest/spring/tasks/41"
          },
          "project" : {
            "href" : "http://localhost:8080/rest/spring/tasks/41/project"
          }
        }
      }, {
        "name" : "Task 42",
        "id" : 42,
        "_links" : {
          "self" : {
            "href" : "http://localhost:8080/rest/spring/tasks/42"
          },
          "project" : {
            "href" : "http://localhost:8080/rest/spring/tasks/42/project"
          }
        }
      }, {
        "name" : "Task 43",
        "id" : 43,
        "_links" : {
          "self" : {
            "href" : "http://localhost:8080/rest/spring/tasks/43"
          },
          "project" : {
            "href" : "http://localhost:8080/rest/spring/tasks/43/project"
          }
        }
      }, {
        "name" : "Task 44",
        "id" : 44,
        "_links" : {
          "self" : {
            "href" : "http://localhost:8080/rest/spring/tasks/44"
          },
          "project" : {
            "href" : "http://localhost:8080/rest/spring/tasks/44/project"
          }
        }
      }, {
        "name" : "Task 45",
        "id" : 45,
        "_links" : {
          "self" : {
            "href" : "http://localhost:8080/rest/spring/tasks/45"
          },
          "project" : {
            "href" : "http://localhost:8080/rest/spring/tasks/45/project"
          }
        }
      }, {
        "name" : "Task 46",
        "id" : 46,
        "_links" : {
          "self" : {
            "href" : "http://localhost:8080/rest/spring/tasks/46"
          },
          "project" : {
            "href" : "http://localhost:8080/rest/spring/tasks/46/project"
          }
        }
      }, {
        "name" : "Task 47",
        "id" : 47,
        "_links" : {
          "self" : {
            "href" : "http://localhost:8080/rest/spring/tasks/47"
          },
          "project" : {
            "href" : "http://localhost:8080/rest/spring/tasks/47/project"
          }
        }
      }, {
        "name" : "Task 48",
        "id" : 48,
        "_links" : {
          "self" : {
            "href" : "http://localhost:8080/rest/spring/tasks/48"
          },
          "project" : {
            "href" : "http://localhost:8080/rest/spring/tasks/48/project"
          }
        }
      }, {
        "name" : "Task 49",
        "id" : 49,
        "_links" : {
          "self" : {
            "href" : "http://localhost:8080/rest/spring/tasks/49"
          },
          "project" : {
            "href" : "http://localhost:8080/rest/spring/tasks/49/project"
          }
        }
      }, {
        "name" : "Task 50",
        "id" : 50,
        "_links" : {
          "self" : {
            "href" : "http://localhost:8080/rest/spring/tasks/50"
          },
          "project" : {
            "href" : "http://localhost:8080/rest/spring/tasks/50/project"
          }
        }
      } ],
      "_links" : {
        "self" : {
          "href" : "http://localhost:8080/rest/spring/projects/5"
        },
        "project" : {
          "href" : "http://localhost:8080/rest/spring/projects/5{?projection}",
          "templated" : true
        },
        "tasks" : {
          "href" : "http://localhost:8080/rest/spring/projects/5/tasks"
        },
        "members" : {
          "href" : "http://localhost:8080/rest/spring/projects/5/members"
        }
      }
    }, {
      "name" : "Project 6",
      "tasks" : [ {
        "name" : "Task 51",
        "id" : 51,
        "_links" : {
          "self" : {
            "href" : "http://localhost:8080/rest/spring/tasks/51"
          },
          "project" : {
            "href" : "http://localhost:8080/rest/spring/tasks/51/project"
          }
        }
      }, {
        "name" : "Task 52",
        "id" : 52,
        "_links" : {
          "self" : {
            "href" : "http://localhost:8080/rest/spring/tasks/52"
          },
          "project" : {
            "href" : "http://localhost:8080/rest/spring/tasks/52/project"
          }
        }
      }, {
        "name" : "Task 53",
        "id" : 53,
        "_links" : {
          "self" : {
            "href" : "http://localhost:8080/rest/spring/tasks/53"
          },
          "project" : {
            "href" : "http://localhost:8080/rest/spring/tasks/53/project"
          }
        }
      }, {
        "name" : "Task 54",
        "id" : 54,
        "_links" : {
          "self" : {
            "href" : "http://localhost:8080/rest/spring/tasks/54"
          },
          "project" : {
            "href" : "http://localhost:8080/rest/spring/tasks/54/project"
          }
        }
      }, {
        "name" : "Task 55",
        "id" : 55,
        "_links" : {
          "self" : {
            "href" : "http://localhost:8080/rest/spring/tasks/55"
          },
          "project" : {
            "href" : "http://localhost:8080/rest/spring/tasks/55/project"
          }
        }
      }, {
        "name" : "Task 56",
        "id" : 56,
        "_links" : {
          "self" : {
            "href" : "http://localhost:8080/rest/spring/tasks/56"
          },
          "project" : {
            "href" : "http://localhost:8080/rest/spring/tasks/56/project"
          }
        }
      }, {
        "name" : "Task 57",
        "id" : 57,
        "_links" : {
          "self" : {
            "href" : "http://localhost:8080/rest/spring/tasks/57"
          },
          "project" : {
            "href" : "http://localhost:8080/rest/spring/tasks/57/project"
          }
        }
      }, {
        "name" : "Task 58",
        "id" : 58,
        "_links" : {
          "self" : {
            "href" : "http://localhost:8080/rest/spring/tasks/58"
          },
          "project" : {
            "href" : "http://localhost:8080/rest/spring/tasks/58/project"
          }
        }
      }, {
        "name" : "Task 59",
        "id" : 59,
        "_links" : {
          "self" : {
            "href" : "http://localhost:8080/rest/spring/tasks/59"
          },
          "project" : {
            "href" : "http://localhost:8080/rest/spring/tasks/59/project"
          }
        }
      }, {
        "name" : "Task 60",
        "id" : 60,
        "_links" : {
          "self" : {
            "href" : "http://localhost:8080/rest/spring/tasks/60"
          },
          "project" : {
            "href" : "http://localhost:8080/rest/spring/tasks/60/project"
          }
        }
      } ],
      "_links" : {
        "self" : {
          "href" : "http://localhost:8080/rest/spring/projects/6"
        },
        "project" : {
          "href" : "http://localhost:8080/rest/spring/projects/6{?projection}",
          "templated" : true
        },
        "tasks" : {
          "href" : "http://localhost:8080/rest/spring/projects/6/tasks"
        },
        "members" : {
          "href" : "http://localhost:8080/rest/spring/projects/6/members"
        }
      }
    }, {
      "name" : "Project 7",
      "tasks" : [ {
        "name" : "Task 61",
        "id" : 61,
        "_links" : {
          "self" : {
            "href" : "http://localhost:8080/rest/spring/tasks/61"
          },
          "project" : {
            "href" : "http://localhost:8080/rest/spring/tasks/61/project"
          }
        }
      }, {
        "name" : "Task 62",
        "id" : 62,
        "_links" : {
          "self" : {
            "href" : "http://localhost:8080/rest/spring/tasks/62"
          },
          "project" : {
            "href" : "http://localhost:8080/rest/spring/tasks/62/project"
          }
        }
      }, {
        "name" : "Task 63",
        "id" : 63,
        "_links" : {
          "self" : {
            "href" : "http://localhost:8080/rest/spring/tasks/63"
          },
          "project" : {
            "href" : "http://localhost:8080/rest/spring/tasks/63/project"
          }
        }
      }, {
        "name" : "Task 64",
        "id" : 64,
        "_links" : {
          "self" : {
            "href" : "http://localhost:8080/rest/spring/tasks/64"
          },
          "project" : {
            "href" : "http://localhost:8080/rest/spring/tasks/64/project"
          }
        }
      }, {
        "name" : "Task 65",
        "id" : 65,
        "_links" : {
          "self" : {
            "href" : "http://localhost:8080/rest/spring/tasks/65"
          },
          "project" : {
            "href" : "http://localhost:8080/rest/spring/tasks/65/project"
          }
        }
      }, {
        "name" : "Task 66",
        "id" : 66,
        "_links" : {
          "self" : {
            "href" : "http://localhost:8080/rest/spring/tasks/66"
          },
          "project" : {
            "href" : "http://localhost:8080/rest/spring/tasks/66/project"
          }
        }
      }, {
        "name" : "Task 67",
        "id" : 67,
        "_links" : {
          "self" : {
            "href" : "http://localhost:8080/rest/spring/tasks/67"
          },
          "project" : {
            "href" : "http://localhost:8080/rest/spring/tasks/67/project"
          }
        }
      }, {
        "name" : "Task 68",
        "id" : 68,
        "_links" : {
          "self" : {
            "href" : "http://localhost:8080/rest/spring/tasks/68"
          },
          "project" : {
            "href" : "http://localhost:8080/rest/spring/tasks/68/project"
          }
        }
      }, {
        "name" : "Task 69",
        "id" : 69,
        "_links" : {
          "self" : {
            "href" : "http://localhost:8080/rest/spring/tasks/69"
          },
          "project" : {
            "href" : "http://localhost:8080/rest/spring/tasks/69/project"
          }
        }
      }, {
        "name" : "Task 70",
        "id" : 70,
        "_links" : {
          "self" : {
            "href" : "http://localhost:8080/rest/spring/tasks/70"
          },
          "project" : {
            "href" : "http://localhost:8080/rest/spring/tasks/70/project"
          }
        }
      } ],
      "_links" : {
        "self" : {
          "href" : "http://localhost:8080/rest/spring/projects/7"
        },
        "project" : {
          "href" : "http://localhost:8080/rest/spring/projects/7{?projection}",
          "templated" : true
        },
        "tasks" : {
          "href" : "http://localhost:8080/rest/spring/projects/7/tasks"
        },
        "members" : {
          "href" : "http://localhost:8080/rest/spring/projects/7/members"
        }
      }
    }, {
      "name" : "Project 8",
      "tasks" : [ {
        "name" : "Task 71",
        "id" : 71,
        "_links" : {
          "self" : {
            "href" : "http://localhost:8080/rest/spring/tasks/71"
          },
          "project" : {
            "href" : "http://localhost:8080/rest/spring/tasks/71/project"
          }
        }
      }, {
        "name" : "Task 72",
        "id" : 72,
        "_links" : {
          "self" : {
            "href" : "http://localhost:8080/rest/spring/tasks/72"
          },
          "project" : {
            "href" : "http://localhost:8080/rest/spring/tasks/72/project"
          }
        }
      }, {
        "name" : "Task 73",
        "id" : 73,
        "_links" : {
          "self" : {
            "href" : "http://localhost:8080/rest/spring/tasks/73"
          },
          "project" : {
            "href" : "http://localhost:8080/rest/spring/tasks/73/project"
          }
        }
      }, {
        "name" : "Task 74",
        "id" : 74,
        "_links" : {
          "self" : {
            "href" : "http://localhost:8080/rest/spring/tasks/74"
          },
          "project" : {
            "href" : "http://localhost:8080/rest/spring/tasks/74/project"
          }
        }
      }, {
        "name" : "Task 75",
        "id" : 75,
        "_links" : {
          "self" : {
            "href" : "http://localhost:8080/rest/spring/tasks/75"
          },
          "project" : {
            "href" : "http://localhost:8080/rest/spring/tasks/75/project"
          }
        }
      }, {
        "name" : "Task 76",
        "id" : 76,
        "_links" : {
          "self" : {
            "href" : "http://localhost:8080/rest/spring/tasks/76"
          },
          "project" : {
            "href" : "http://localhost:8080/rest/spring/tasks/76/project"
          }
        }
      }, {
        "name" : "Task 77",
        "id" : 77,
        "_links" : {
          "self" : {
            "href" : "http://localhost:8080/rest/spring/tasks/77"
          },
          "project" : {
            "href" : "http://localhost:8080/rest/spring/tasks/77/project"
          }
        }
      }, {
        "name" : "Task 78",
        "id" : 78,
        "_links" : {
          "self" : {
            "href" : "http://localhost:8080/rest/spring/tasks/78"
          },
          "project" : {
            "href" : "http://localhost:8080/rest/spring/tasks/78/project"
          }
        }
      }, {
        "name" : "Task 79",
        "id" : 79,
        "_links" : {
          "self" : {
            "href" : "http://localhost:8080/rest/spring/tasks/79"
          },
          "project" : {
            "href" : "http://localhost:8080/rest/spring/tasks/79/project"
          }
        }
      }, {
        "name" : "Task 80",
        "id" : 80,
        "_links" : {
          "self" : {
            "href" : "http://localhost:8080/rest/spring/tasks/80"
          },
          "project" : {
            "href" : "http://localhost:8080/rest/spring/tasks/80/project"
          }
        }
      } ],
      "_links" : {
        "self" : {
          "href" : "http://localhost:8080/rest/spring/projects/8"
        },
        "project" : {
          "href" : "http://localhost:8080/rest/spring/projects/8{?projection}",
          "templated" : true
        },
        "tasks" : {
          "href" : "http://localhost:8080/rest/spring/projects/8/tasks"
        },
        "members" : {
          "href" : "http://localhost:8080/rest/spring/projects/8/members"
        }
      }
    }, {
      "name" : "Project 9",
      "tasks" : [ {
        "name" : "Task 81",
        "id" : 81,
        "_links" : {
          "self" : {
            "href" : "http://localhost:8080/rest/spring/tasks/81"
          },
          "project" : {
            "href" : "http://localhost:8080/rest/spring/tasks/81/project"
          }
        }
      }, {
        "name" : "Task 82",
        "id" : 82,
        "_links" : {
          "self" : {
            "href" : "http://localhost:8080/rest/spring/tasks/82"
          },
          "project" : {
            "href" : "http://localhost:8080/rest/spring/tasks/82/project"
          }
        }
      }, {
        "name" : "Task 83",
        "id" : 83,
        "_links" : {
          "self" : {
            "href" : "http://localhost:8080/rest/spring/tasks/83"
          },
          "project" : {
            "href" : "http://localhost:8080/rest/spring/tasks/83/project"
          }
        }
      }, {
        "name" : "Task 84",
        "id" : 84,
        "_links" : {
          "self" : {
            "href" : "http://localhost:8080/rest/spring/tasks/84"
          },
          "project" : {
            "href" : "http://localhost:8080/rest/spring/tasks/84/project"
          }
        }
      }, {
        "name" : "Task 85",
        "id" : 85,
        "_links" : {
          "self" : {
            "href" : "http://localhost:8080/rest/spring/tasks/85"
          },
          "project" : {
            "href" : "http://localhost:8080/rest/spring/tasks/85/project"
          }
        }
      }, {
        "name" : "Task 86",
        "id" : 86,
        "_links" : {
          "self" : {
            "href" : "http://localhost:8080/rest/spring/tasks/86"
          },
          "project" : {
            "href" : "http://localhost:8080/rest/spring/tasks/86/project"
          }
        }
      }, {
        "name" : "Task 87",
        "id" : 87,
        "_links" : {
          "self" : {
            "href" : "http://localhost:8080/rest/spring/tasks/87"
          },
          "project" : {
            "href" : "http://localhost:8080/rest/spring/tasks/87/project"
          }
        }
      }, {
        "name" : "Task 88",
        "id" : 88,
        "_links" : {
          "self" : {
            "href" : "http://localhost:8080/rest/spring/tasks/88"
          },
          "project" : {
            "href" : "http://localhost:8080/rest/spring/tasks/88/project"
          }
        }
      }, {
        "name" : "Task 89",
        "id" : 89,
        "_links" : {
          "self" : {
            "href" : "http://localhost:8080/rest/spring/tasks/89"
          },
          "project" : {
            "href" : "http://localhost:8080/rest/spring/tasks/89/project"
          }
        }
      }, {
        "name" : "Task 90",
        "id" : 90,
        "_links" : {
          "self" : {
            "href" : "http://localhost:8080/rest/spring/tasks/90"
          },
          "project" : {
            "href" : "http://localhost:8080/rest/spring/tasks/90/project"
          }
        }
      } ],
      "_links" : {
        "self" : {
          "href" : "http://localhost:8080/rest/spring/projects/9"
        },
        "project" : {
          "href" : "http://localhost:8080/rest/spring/projects/9{?projection}",
          "templated" : true
        },
        "tasks" : {
          "href" : "http://localhost:8080/rest/spring/projects/9/tasks"
        },
        "members" : {
          "href" : "http://localhost:8080/rest/spring/projects/9/members"
        }
      }
    }, {
      "name" : "Project 10",
      "tasks" : [ {
        "name" : "Task 91",
        "id" : 91,
        "_links" : {
          "self" : {
            "href" : "http://localhost:8080/rest/spring/tasks/91"
          },
          "project" : {
            "href" : "http://localhost:8080/rest/spring/tasks/91/project"
          }
        }
      }, {
        "name" : "Task 92",
        "id" : 92,
        "_links" : {
          "self" : {
            "href" : "http://localhost:8080/rest/spring/tasks/92"
          },
          "project" : {
            "href" : "http://localhost:8080/rest/spring/tasks/92/project"
          }
        }
      }, {
        "name" : "Task 93",
        "id" : 93,
        "_links" : {
          "self" : {
            "href" : "http://localhost:8080/rest/spring/tasks/93"
          },
          "project" : {
            "href" : "http://localhost:8080/rest/spring/tasks/93/project"
          }
        }
      }, {
        "name" : "Task 94",
        "id" : 94,
        "_links" : {
          "self" : {
            "href" : "http://localhost:8080/rest/spring/tasks/94"
          },
          "project" : {
            "href" : "http://localhost:8080/rest/spring/tasks/94/project"
          }
        }
      }, {
        "name" : "Task 95",
        "id" : 95,
        "_links" : {
          "self" : {
            "href" : "http://localhost:8080/rest/spring/tasks/95"
          },
          "project" : {
            "href" : "http://localhost:8080/rest/spring/tasks/95/project"
          }
        }
      }, {
        "name" : "Task 96",
        "id" : 96,
        "_links" : {
          "self" : {
            "href" : "http://localhost:8080/rest/spring/tasks/96"
          },
          "project" : {
            "href" : "http://localhost:8080/rest/spring/tasks/96/project"
          }
        }
      }, {
        "name" : "Task 97",
        "id" : 97,
        "_links" : {
          "self" : {
            "href" : "http://localhost:8080/rest/spring/tasks/97"
          },
          "project" : {
            "href" : "http://localhost:8080/rest/spring/tasks/97/project"
          }
        }
      }, {
        "name" : "Task 98",
        "id" : 98,
        "_links" : {
          "self" : {
            "href" : "http://localhost:8080/rest/spring/tasks/98"
          },
          "project" : {
            "href" : "http://localhost:8080/rest/spring/tasks/98/project"
          }
        }
      }, {
        "name" : "Task 99",
        "id" : 99,
        "_links" : {
          "self" : {
            "href" : "http://localhost:8080/rest/spring/tasks/99"
          },
          "project" : {
            "href" : "http://localhost:8080/rest/spring/tasks/99/project"
          }
        }
      }, {
        "name" : "Task 100",
        "id" : 100,
        "_links" : {
          "self" : {
            "href" : "http://localhost:8080/rest/spring/tasks/100"
          },
          "project" : {
            "href" : "http://localhost:8080/rest/spring/tasks/100/project"
          }
        }
      } ],
      "_links" : {
        "self" : {
          "href" : "http://localhost:8080/rest/spring/projects/10"
        },
        "project" : {
          "href" : "http://localhost:8080/rest/spring/projects/10{?projection}",
          "templated" : true
        },
        "tasks" : {
          "href" : "http://localhost:8080/rest/spring/projects/10/tasks"
        },
        "members" : {
          "href" : "http://localhost:8080/rest/spring/projects/10/members"
        }
      }
    } ]
  },
  "_links" : {
    "self" : {
      "href" : "http://localhost:8080/rest/spring/projects{?page,size,sort,projection}",
      "templated" : true
    },
    "profile" : {
      "href" : "http://localhost:8080/rest/spring/profile/projects"
    }
  },
  "page" : {
    "size" : 20,
    "totalElements" : 10,
    "totalPages" : 1,
    "number" : 0
  }
}